{
  "images" : [
    {
      "filename" : "icon_statistic.png",
      "idiom" : "universal",
      "locale" : "Swift",
      "scale" : "1x"
    },
    {
      "idiom" : "universal",
      "locale" : "Swift",
      "scale" : "2x"
    },
    {
      "idiom" : "universal",
      "locale" : "Swift",
      "scale" : "3x"
    }
  ],
  "info" : {
    "author" : "xcode",
    "version" : 1
  },
  "properties" : {
    "compression-type" : "gpu-optimized-best"
  }
}
